4 Ball and Brown (1968) – Empirical Research in Accounting
…
ew_rets <- 
  read_data(ew_start, ew_end) |>
  rename(ew_ret = ret)

size_rets <-
  ew_rets |>
  inner_join(vw_rets, by = c("month", "decile")) |>
  select(month, decile, everything())

size_rets

# A tibble: 11,820 × 4
   month      decile  ew_ret  vw_ret
   <date>      <int>   <dbl>   <dbl>
 1 1926-07-01      1 -0.0142 -0.0012
 2 1926-07-01      2  0.0029  0.0052
 3 1926-07-01      3 -0.0015 -0.0005
 4 1926-07-01      4  0.0088  0.0082
 5 1926-07-01      5  0.0145  0.0139
 6 1926-07-01      6  0.0185  0.0189
 7 1926-07-01      7  0.0163  0.0162
 8 1926-07-01      8  0.0138  0.0129
 9 1926-07-01      9  0.0338  0.0353
10 1926-07-01     10  0.0329  0.0371
# ℹ 11,810 more rows
…
