11 自然実験:再訪 – Empirical Research in Accounting
…
11.2 The Reg SHO experiment

上記の議論で取り上げられた問題を実際の研究環境でよりよく理解するために、多くの研究の対象となってきたReg SHO実験に焦点を当てる。  2004年7月、SECは、株式市場における空売り活動を統制する規制であるReg SHOを採択した。  Reg SHOには、Russell 3000指数の株式が各取引所内で取引量によってランク付けされ、3つおきに1つがパイロット株式として指定されるパイロットプログラムが含まれていた。  2005年5月2日から2007年8月6日まで、パイロット株式に対する空売りは、取引所上場株式のチックテストやNASDAQナショナルマーケット株式のビッドテストを含む価格テストの対象外とされた。

最初の命令で、SECは「パイロットは、[SEC]が空売り価格テストのない状況での取引行動を研究することを可能にする」と述べている。  SECの計画は、「価格テストが市場の質（ボラティリティや流動性を含む）に与える影響、価格変動が空売りによって引き起こされるかどうか、価格テストによって課されるコスト、および空売りポジションを確立するための代替手段の使用」などを調査することであった。

11.2.1 SHOパイロットサンプル

Reg SHO実験における割当メカニズムは、自然実験の基準に照らしても、極めて透明性が高い。  しかしながら、処置群および対照群の企業を特定する際には慎重を要する。本節では、その手順を具体的に示すことが有益であると考える。  （コードの詳細を煩雑に感じる読者は、初回の読解時には 19.2.3 節 に進むことも可能である。  ただし、「初回の読解」と述べたのは、自然実験には微妙な論点が含まれており、本節がそれらを明確にする助けとなるためである。後の内容を読んだ後に本節に戻ることも有意義であろう。）

SECのウェブサイトでは、Reg SHOパイロット企業の名称およびティッカーシンボルに関するデータが提供されている。  これらのデータは解析され、farrパッケージのsho_tickersデータセットとして組み込まれている。

sho_tickers

# A tibble: 986 × 2
   ticker co_name                 
   <chr>  <chr>                   
 1 A      AGILENT TECHNOLOGIES INC
 2 AAI    AIRTRAN HOLDINGS INC    
 3 AAON   AAON INC                
 4 ABC    AMERISOURCEBERGEN CORP  
 5 ABCO   ADVISORY BOARD CO       
 6 ABCW   ANCHOR BANCORP INC      
 7 ABGX   ABGENIX INC             
 8 ABK    AMBAC FINANCIAL GRP INC 
 9 ABMD   ABIOMED INC             
10 ABR    ARBOR REALTY TRUST INC  
# ℹ 976 more rows

しかし、これらはあくまでパイロット企業に関するものであり、対照群の企業を特定するには別の情報源を利用する必要がある。  SECが処置群の銘柄リストを公表していながら、対照群に関する情報を提供していないことは、一見すると不可解に思われるかもしれない。  ひとつの説明として、特別な措置（すなわち、価格テストの撤廃）が処置群の銘柄に対してのみ適用されたため、対照群の銘柄については市場において通常の取引が継続されることになり、パイロット実験の実施にあたって対照群のリストを作成する必要がなかった可能性がある。  さらに、SEC自身が統計分析を行う際に対照群のリストを保有していたため、公表する必要がなかったとも考えられる。  幸いなことに、SECは対照群の銘柄を明示的には特定していないものの、それを特定するために十分な情報を提供しており、本節ではその方法を示す。

まず、パイロット銘柄は Russell 3000 の構成銘柄から選定されたことが分かっている。これらの構成銘柄は、farrパッケージのsho_r3000データセットに含まれている。

sho_r3000

# A tibble: 3,000 × 2
   russell_ticker russell_name            
   <chr>          <chr>                   
 1 A              AGILENT TECHNOLOGIES INC
 2 AA             ALCOA INC               
 3 AACC           ASSET ACCEPTANCE CAPITAL
 4 AACE           ACE CASH EXPRESS INC    
 5 AAI            AIRTRAN HOLDINGS INC    
 6 AAON           AAON INC                
 7 AAP            ADVANCE AUTO PARTS INC  
 8 AAPL           APPLE COMPUTER INC      
 9 ABAX           ABAXIS INC              
10 ABC            AMERISOURCEBERGEN CORP  
# ℹ 2,990 more rows
…
